%YAML 1.1
%TAG !u! tag:unity3d.com,2011:
--- !u!74 &7400000
AnimationClip:
  m_ObjectHideFlags: 0
  m_CorrespondingSourceObject: {fileID: 0}
  m_PrefabInstance: {fileID: 0}
  m_PrefabAsset: {fileID: 0}
  m_Name: Raise-L
  serializedVersion: 6
  m_Legacy: 0
  m_Compressed: 0
  m_UseHighQualityCurve: 1
  m_RotationCurves: []
  m_CompressedRotationCurves: []
  m_EulerCurves: []
  m_PositionCurves: []
  m_ScaleCurves: []
  m_FloatCurves: []
  m_PPtrCurves:
  - curve:
    - time: 0
      value: {fileID: 8731780737059244501, guid: 754db359568f7579cbdf193043c726d7,
        type: 3}
    - time: 0.016666668
      value: {fileID: 6708253408489209243, guid: 754db359568f7579cbdf193043c726d7,
        type: 3}
    - time: 0.033333335
      value: {fileID: -345217630037912794, guid: 754db359568f7579cbdf193043c726d7,
        type: 3}
    - time: 0.05
      value: {fileID: 5304738838090765386, guid: 754db359568f7579cbdf193043c726d7,
        type: 3}
    - time: 0.06666667
      value: {fileID: 7770984457844126357, guid: 754db359568f7579cbdf193043c726d7,
        type: 3}
    - time: 0.083333336
      value: {fileID: -304463935825674592, guid: 754db359568f7579cbdf193043c726d7,
        type: 3}
    - time: 0.1
      value: {fileID: 7195825370017840344, guid: 754db359568f7579cbdf193043c726d7,
        type: 3}
    - time: 0.11666667
      value: {fileID: -3483601440585343929, guid: 754db359568f7579cbdf193043c726d7,
        type: 3}
    - time: 0.13333334
      value: {fileID: 4714612377991225581, guid: 754db359568f7579cbdf193043c726d7,
        type: 3}
    - time: 0.15
      value: {fileID: 3297040257379849062, guid: 754db359568f7579cbdf193043c726d7,
        type: 3}
    - time: 0.16666667
      value: {fileID: 8209388160355200152, guid: 754db359568f7579cbdf193043c726d7,
        type: 3}
    attribute: m_Sprite
    path: 
    classID: 212
    script: {fileID: 0}
  m_SampleRate: 60
  m_WrapMode: 0
  m_Bounds:
    m_Center: {x: 0, y: 0, z: 0}
    m_Extent: {x: 0, y: 0, z: 0}
  m_ClipBindingConstant:
    genericBindings:
    - serializedVersion: 2
      path: 0
      attribute: 0
      script: {fileID: 0}
      typeID: 212
      customType: 23
      isPPtrCurve: 1
    pptrCurveMapping:
    - {fileID: 8731780737059244501, guid: 754db359568f7579cbdf193043c726d7, type: 3}
    - {fileID: 6708253408489209243, guid: 754db359568f7579cbdf193043c726d7, type: 3}
    - {fileID: -345217630037912794, guid: 754db359568f7579cbdf193043c726d7, type: 3}
    - {fileID: 5304738838090765386, guid: 754db359568f7579cbdf193043c726d7, type: 3}
    - {fileID: 7770984457844126357, guid: 754db359568f7579cbdf193043c726d7, type: 3}
    - {fileID: -304463935825674592, guid: 754db359568f7579cbdf193043c726d7, type: 3}
    - {fileID: 7195825370017840344, guid: 754db359568f7579cbdf193043c726d7, type: 3}
    - {fileID: -3483601440585343929, guid: 754db359568f7579cbdf193043c726d7, type: 3}
    - {fileID: 4714612377991225581, guid: 754db359568f7579cbdf193043c726d7, type: 3}
    - {fileID: 3297040257379849062, guid: 754db359568f7579cbdf193043c726d7, type: 3}
    - {fileID: 8209388160355200152, guid: 754db359568f7579cbdf193043c726d7, type: 3}
  m_AnimationClipSettings:
    serializedVersion: 2
    m_AdditiveReferencePoseClip: {fileID: 0}
    m_AdditiveReferencePoseTime: 0
    m_StartTime: 0
    m_StopTime: 0.18333334
    m_OrientationOffsetY: 0
    m_Level: 0
    m_CycleOffset: 0
    m_HasAdditiveReferencePose: 0
    m_LoopTime: 1
    m_LoopBlend: 0
    m_LoopBlendOrientation: 0
    m_LoopBlendPositionY: 0
    m_LoopBlendPositionXZ: 0
    m_KeepOriginalOrientation: 0
    m_KeepOriginalPositionY: 1
    m_KeepOriginalPositionXZ: 0
    m_HeightFromFeet: 0
    m_Mirror: 0
  m_EditorCurves: []
  m_EulerEditorCurves: []
  m_HasGenericRootTransform: 0
  m_HasMotionFloatCurves: 0
  m_Events: []
