%YAML 1.1
%TAG !u! tag:unity3d.com,2011:
--- !u!74 &7400000
AnimationClip:
  m_ObjectHideFlags: 0
  m_CorrespondingSourceObject: {fileID: 0}
  m_PrefabInstance: {fileID: 0}
  m_PrefabAsset: {fileID: 0}
  m_Name: Raise-R
  serializedVersion: 6
  m_Legacy: 0
  m_Compressed: 0
  m_UseHighQualityCurve: 1
  m_RotationCurves: []
  m_CompressedRotationCurves: []
  m_EulerCurves: []
  m_PositionCurves: []
  m_ScaleCurves: []
  m_FloatCurves: []
  m_PPtrCurves:
  - curve:
    - time: 0
      value: {fileID: -3808559904598471940, guid: 754db359568f7579cbdf193043c726d7,
        type: 3}
    - time: 0.016666668
      value: {fileID: 3307335696464472915, guid: 754db359568f7579cbdf193043c726d7,
        type: 3}
    - time: 0.033333335
      value: {fileID: -8351140897390037358, guid: 754db359568f7579cbdf193043c726d7,
        type: 3}
    - time: 0.05
      value: {fileID: 8005980653083501030, guid: 754db359568f7579cbdf193043c726d7,
        type: 3}
    - time: 0.06666667
      value: {fileID: 5906560470681001221, guid: 754db359568f7579cbdf193043c726d7,
        type: 3}
    - time: 0.083333336
      value: {fileID: 6184443311562085520, guid: 754db359568f7579cbdf193043c726d7,
        type: 3}
    - time: 0.1
      value: {fileID: -7464700855691337049, guid: 754db359568f7579cbdf193043c726d7,
        type: 3}
    - time: 0.11666667
      value: {fileID: -8535102077984492036, guid: 754db359568f7579cbdf193043c726d7,
        type: 3}
    - time: 0.13333334
      value: {fileID: 8794871714941674736, guid: 754db359568f7579cbdf193043c726d7,
        type: 3}
    - time: 0.15
      value: {fileID: 2861985100621183019, guid: 754db359568f7579cbdf193043c726d7,
        type: 3}
    - time: 0.16666667
      value: {fileID: -4295907211412224817, guid: 754db359568f7579cbdf193043c726d7,
        type: 3}
    attribute: m_Sprite
    path: 
    classID: 212
    script: {fileID: 0}
  m_SampleRate: 60
  m_WrapMode: 0
  m_Bounds:
    m_Center: {x: 0, y: 0, z: 0}
    m_Extent: {x: 0, y: 0, z: 0}
  m_ClipBindingConstant:
    genericBindings:
    - serializedVersion: 2
      path: 0
      attribute: 0
      script: {fileID: 0}
      typeID: 212
      customType: 23
      isPPtrCurve: 1
    pptrCurveMapping:
    - {fileID: -3808559904598471940, guid: 754db359568f7579cbdf193043c726d7, type: 3}
    - {fileID: 3307335696464472915, guid: 754db359568f7579cbdf193043c726d7, type: 3}
    - {fileID: -8351140897390037358, guid: 754db359568f7579cbdf193043c726d7, type: 3}
    - {fileID: 8005980653083501030, guid: 754db359568f7579cbdf193043c726d7, type: 3}
    - {fileID: 5906560470681001221, guid: 754db359568f7579cbdf193043c726d7, type: 3}
    - {fileID: 6184443311562085520, guid: 754db359568f7579cbdf193043c726d7, type: 3}
    - {fileID: -7464700855691337049, guid: 754db359568f7579cbdf193043c726d7, type: 3}
    - {fileID: -8535102077984492036, guid: 754db359568f7579cbdf193043c726d7, type: 3}
    - {fileID: 8794871714941674736, guid: 754db359568f7579cbdf193043c726d7, type: 3}
    - {fileID: 2861985100621183019, guid: 754db359568f7579cbdf193043c726d7, type: 3}
    - {fileID: -4295907211412224817, guid: 754db359568f7579cbdf193043c726d7, type: 3}
  m_AnimationClipSettings:
    serializedVersion: 2
    m_AdditiveReferencePoseClip: {fileID: 0}
    m_AdditiveReferencePoseTime: 0
    m_StartTime: 0
    m_StopTime: 0.18333334
    m_OrientationOffsetY: 0
    m_Level: 0
    m_CycleOffset: 0
    m_HasAdditiveReferencePose: 0
    m_LoopTime: 1
    m_LoopBlend: 0
    m_LoopBlendOrientation: 0
    m_LoopBlendPositionY: 0
    m_LoopBlendPositionXZ: 0
    m_KeepOriginalOrientation: 0
    m_KeepOriginalPositionY: 1
    m_KeepOriginalPositionXZ: 0
    m_HeightFromFeet: 0
    m_Mirror: 0
  m_EditorCurves: []
  m_EulerEditorCurves: []
  m_HasGenericRootTransform: 0
  m_HasMotionFloatCurves: 0
  m_Events: []
