%YAML 1.1
%TAG !u! tag:unity3d.com,2011:
--- !u!114 &11400000
MonoBehaviour:
  m_ObjectHideFlags: 0
  m_CorrespondingSourceObject: {fileID: 0}
  m_PrefabInstance: {fileID: 0}
  m_PrefabAsset: {fileID: 0}
  m_GameObject: {fileID: 0}
  m_Enabled: 1
  m_EditorHideFlags: 0
  m_Script: {fileID: 0}
  m_Name: DeepWater
  m_EditorClassIdentifier: Assembly-CSharp:UnityEngine.Tilemaps:AnimatedTile
  m_AnimatedSprites:
  - {fileID: 6887284163647927537, guid: a46f8f09d85ee9350b106585b57006e0, type: 3}
  - {fileID: -8252892364573463123, guid: a46f8f09d85ee9350b106585b57006e0, type: 3}
  - {fileID: 3513320589077641336, guid: a46f8f09d85ee9350b106585b57006e0, type: 3}
  - {fileID: -4878979876615066303, guid: a46f8f09d85ee9350b106585b57006e0, type: 3}
  - {fileID: -568965983499802543, guid: a46f8f09d85ee9350b106585b57006e0, type: 3}
  - {fileID: -1938585796302784163, guid: a46f8f09d85ee9350b106585b57006e0, type: 3}
  - {fileID: -4212385446946587955, guid: a46f8f09d85ee9350b106585b57006e0, type: 3}
  - {fileID: -1763779450237710048, guid: a46f8f09d85ee9350b106585b57006e0, type: 3}
  m_MinSpeed: 1
  m_MaxSpeed: 2
  m_AnimationStartTime: 0
  m_TileColliderType: 0
